CS1950_Week03_PiB
…
## 
## i Use `spec()` to retrieve the full column specification for this data.
## i Specify the column types or set `show_col_types = FALSE` to quiet this message.

Check unique identifiers

The number of rows associated with each Vault_Scan_ID.

df %>% 
  count(Vault_Scan_ID)

## # A tibble: 190 x 2
##    Vault_Scan_ID     n
##            <dbl> <int>
##  1        800569     1
##  2        800570     1
##  3        800571     1
##  4        800572     1
##  5        800573     1
##  6        800574     1
##  7        800575     1
##  8        800684     1
##  9        800685     1
## 10        800686     1
## # ... with 180 more rows
…
## # A tibble: 2 x 5
##   Vault_Scan_ID Vault_UID GPNID_VisitNum Nebes_ID UniqueID
##           <dbl>     <dbl> <chr>             <dbl> <chr>   
## 1        802688    900534 0134DL108         16037 0134DL  
## 2        802688    900534 0134DL108         16037 0134DL

What other identifiers should be considered here?? Identifiers to include : age, sex, race, education , APOE_allele, PiB Regional values Left , PiB regional Right, PiB Global Values , GMD regional Left, GMD right, GMD global, FDG Regional left, FDG regional Right, FDG global

How many unique people are there? And how many rows are associated with each unique person? n = 93 ; max number of rows associated with a unique person is 4

df %>% 
  count(Vault_UID) %>% 
  arrange(desc(n))

## # A tibble: 93 x 2
##    Vault_UID     n
##        <dbl> <int>
##  1    900643     4
##  2    900645     4
##  3    900719     4
##  4    900721     4
##  5    901382     4
##  6    901383     4
##  7    900534     3
##  8    900536     3
##  9    900644     3
## 10    900648     3
## # ... with 83 more rows
…
