PCA GMD_Reshaping Data
…
Reshape to wide-format

Check the number of regions and sides.

gmd_person_summary %>% count(region_name, side_name)

## # A tibble: 52 x 3
##    region_name       side_name     n
##    <chr>             <chr>     <int>
##  1 Caudate           L            93
##  2 Caudate           R            93
##  3 Frontal_Inf_Oper  L            93
##  4 Frontal_Inf_Oper  R            93
##  5 Frontal_Inf_Orb_2 L            93
##  6 Frontal_Inf_Orb_2 R            93
##  7 Frontal_Inf_Tri   L            93
##  8 Frontal_Inf_Tri   R            93
##  9 Frontal_Med_Orb   L            93
## 10 Frontal_Med_Orb   R            93
## # ... with 42 more rows
…
