CS1950_Week05.knit
…
## 
## i Use `spec()` to retrieve the full column specification for this data.
## i Specify the column types or set `show_col_types = FALSE` to quiet this message.

Check unique identifiers

The number of rows associated with each Vault_Scan_ID.

df %>% 
  count(Vault_Scan_ID)

## # A tibble: 190 x 2
##    Vault_Scan_ID     n
##            <dbl> <int>
##  1        800569     1
##  2        800570     1
##  3        800571     1
##  4        800572     1
##  5        800573     1
##  6        800574     1
##  7        800575     1
##  8        800684     1
##  9        800685     1
## 10        800686     1
## # ... with 180 more rows
…
## # A tibble: 2 x 5
##   Vault_Scan_ID Vault_UID GPNID_VisitNum Nebes_ID UniqueID
##           <dbl>     <dbl> <chr>             <dbl> <chr>   
## 1        802688    900534 0134DL108         16037 0134DL  
## 2        802688    900534 0134DL108         16037 0134DL

What other identifiers should be considered here?? Identifiers to include : age, sex, race, education , APOE_allele, PiB Regional values Left , PiB regional Right, PiB Global Values , GMD regional Left, GMD right, GMD global, FDG Regional left, FDG regional Right, FDG global

How many unique people are there? And how many rows are associated with each unique person? n = 93 ; max number of rows associated with a unique person is 4

df %>% 
  count(Vault_UID) %>% 
  arrange(desc(n))

## # A tibble: 93 x 2
##    Vault_UID     n
##        <dbl> <int>
##  1    900643     4
##  2    900645     4
##  3    900719     4
##  4    900721     4
##  5    901382     4
##  6    901383     4
##  7    900534     3
##  8    900536     3
##  9    900644     3
## 10    900648     3
## # ... with 83 more rows
…
## Warning in max(value, na.rm = TRUE): no non-missing arguments to max; returning
## -Inf

## Warning in max(value, na.rm = TRUE): no non-missing arguments to max; returning
## -Inf

Why the warnings? Check the missings.

gmd_regional_summary %>% 
  mutate(num_non_missing = num_rows - num_missing) %>% 
  filter(num_non_missing == 0) %>% 
  select(num_rows, num_missing, num_scans, num_non_missing, min_value, max_value)

## # A tibble: 416 x 6
##    num_rows num_missing num_scans num_non_missing min_value max_value
##       <int>       <int>     <int>           <int>     <dbl>     <dbl>
##  1        1           1         1               0       Inf      -Inf
##  2        1           1         1               0       Inf      -Inf
##  3        2           2         2               0       Inf      -Inf
##  4        1           1         1               0       Inf      -Inf
##  5        1           1         1               0       Inf      -Inf
##  6        1           1         1               0       Inf      -Inf
##  7        1           1         1               0       Inf      -Inf
##  8        1           1         1               0       Inf      -Inf
##  9        1           1         1               0       Inf      -Inf
## 10        1           1         1               0       Inf      -Inf
## # ... with 406 more rows
…
Look at one of those people.

gmd_regional_summary %>% 
  filter(Vault_UID == 901469) %>% 
  select(Vault_UID, region_name, side_name, num_rows, num_missing, ends_with("_value"))

## # A tibble: 52 x 9
##    Vault_UID region_name      side_name num_rows num_missing avg_value min_value
##        <dbl> <chr>            <chr>        <int>       <int>     <dbl>     <dbl>
##  1    901469 Caudate          L                1           1       NaN       Inf
##  2    901469 Caudate          R                1           1       NaN       Inf
##  3    901469 Frontal_Inf_Oper L                1           1       NaN       Inf
##  4    901469 Frontal_Inf_Oper R                1           1       NaN       Inf
##  5    901469 Frontal_Inf_Orb~ L                1           1       NaN       Inf
##  6    901469 Frontal_Inf_Orb~ R                1           1       NaN       Inf
##  7    901469 Frontal_Inf_Tri  L                1           1       NaN       Inf
##  8    901469 Frontal_Inf_Tri  R                1           1       NaN       Inf
##  9    901469 Frontal_Med_Orb  L                1           1       NaN       Inf
## 10    901469 Frontal_Med_Orb  R                1           1       NaN       Inf
## # ... with 42 more rows, and 2 more variables: max_value <dbl>,
## #   range_value <dbl>
…
